…
In many cases, pre-processing of the inventories based on other variables than coordinates and tree size is necessary. For that reason, it is possible to read in any objects that inherit from class `data.frame` (e.g., tibbles, data.tables or actual data.frames) with `read_inv()`. In this example, a dataset is first read in externally and filtered to get data of only one of the plots in the dataset and then read in.

```{r read-inv4, message=FALSE, warning=FALSE, eval=FALSE}
# read dataset outside read_inv and filter to a single plot
dat <- readr::read_csv("data/inventory4.csv") %>% 
  dplyr::filter(plot_id == "Plot 1")
dat
#> # A tibble: 131 × 7
#>    plot_id tree_id       x        y  diam     h canopy_area
#>    <chr>     <dbl>   <dbl>    <dbl> <dbl> <dbl>       <dbl>
#>  1 Plot 1    20492 563149. 5508576. 26.0  27.4        0.755
#>  2 Plot 1    20526 563176. 5508576. 28.2  27.5        0.814
#>  3 Plot 1    20559 563144. 5508577. 50.1  33.7        0.451
#>  4 Plot 1    20563 563172. 5508576. 24.6  21.1        0.447
#>  5 Plot 1    20593 563141. 5508577. 43.4  30.1        2.04 
#>  6 Plot 1    20594 563146. 5508577. 38.9  35.5        2.56 
#>  7 Plot 1    20630 563160. 5508577. 33.2  30.3        1.22 
#>  8 Plot 1    20731 563166. 5508578.  7.28  9.15       0.680
#>  9 Plot 1    20769 563133. 5508579.  4.27  6.62       0.568
#> 10 Plot 1    20771 563145. 5508579. 42.7  31.8        0.946
#> # ℹ 121 more rows
#> # ℹ Use `print(n = ...)` to see more rows
…
